mc20_13TeV.343981.PowhegPythia8EvtGen_NNLOPS_nnlo_30_ggH125_gamgam.deriv.DAOD_PHYSLITE.e5607_s3681_r13167_p6266
mc20_13TeV.343981.PowhegPythia8EvtGen_NNLOPS_nnlo_30_ggH125_gamgam.deriv.DAOD_PHYSLITE.e5607_s3681_r13144_p6266
mc20_13TeV.343981.PowhegPythia8EvtGen_NNLOPS_nnlo_30_ggH125_gamgam.deriv.DAOD_PHYSLITE.e5607_s3681_r13145_p6266
